com\collection\jpa\controller\ChangeCollectorController.class
com\collection\jpa\controller\UserController.class
com\collection\jpa\entity\ProfCollection.class
com\collection\jpa\service\BucketDetailImpl.class
com\collection\jpa\dao\LKPEntryStatusRepository.class
com\collection\jpa\entity\Object.class
com\collection\jpa\service\DeskcallMemberService.class
com\collection\jpa\dao\OfficeRepository.class
com\collection\jpa\service\DeskcallTeamService.class
com\collection\jpa\service\GeneralParameterImpl.class
com\collection\jpa\service\LKPTransactionService.class
com\collection\jpa\controller\EmployeeController.class
com\collection\jpa\service\DeskcallTeamImpl.class
com\collection\jpa\dto\ZipcodeAvailableCriteria.class
com\collection\jpa\dto\DormantDTO.class
com\collection\jpa\entity\Cycle.class
com\collection\jpa\service\ZipcodeService.class
com\collection\jpa\dto\OfficeCodeCriteria.class
com\collection\jpa\entity\Employee.class
com\collection\jpa\dao\IdCardRepository.class
com\collection\jpa\controller\LKPTransactionController.class
com\collection\jpa\service\UserImpl.class
com\collection\jpa\dto\BusinessUnitDTO.class
com\collection\jpa\entity\RemedialMember.class
com\collection\jpa\service\LKPHistoryImpl.class
com\collection\jpa\controller\ZoneController.class
com\collection\jpa\service\CollectionMemberService.class
com\collection\jpa\CollectionJPAApplication$1.class
com\collection\jpa\CollectionJPAApplication.class
com\collection\jpa\dto\BusinessUnitCriteria.class
com\collection\jpa\entity\CollectionMember.class
com\collection\jpa\entity\PrintActivity.class
com\collection\jpa\controller\MFCollectionController.class
com\collection\jpa\entity\LKPEntryStatus.class
com\collection\jpa\entity\RemedialWorkingZone.class
com\collection\jpa\service\LKPEntryStatusService.class
com\collection\jpa\entity\Bucket.class
com\collection\jpa\service\RemedialWorkingAreaImpl.class
com\collection\jpa\config\AuthorizationServerConfig.class
com\collection\jpa\dao\RemedialTeamRepository.class
com\collection\jpa\dto\ZipcodeDTO.class
com\collection\jpa\service\LKPEntryStatusImpl.class
com\collection\jpa\dao\BusinessUnitRepository.class
com\collection\jpa\service\ChangeCollectorImpl.class
com\collection\jpa\entity\DeskCallTeam.class
com\collection\jpa\dao\DeskcallMemberRepository.class
com\collection\jpa\dto\PrintCriteria.class
com\collection\jpa\entity\CollectionDormant.class
com\collection\jpa\service\CycleService.class
com\collection\jpa\service\CollectionDormantService.class
com\collection\jpa\service\ProfCollMouService.class
com\collection\jpa\entity\ProfCollectionMOU.class
com\collection\jpa\entity\LKPTransaction.class
com\collection\jpa\entity\Office.class
com\collection\jpa\dto\EmplCriteria.class
com\collection\jpa\dao\CollectionTeamRepository.class
com\collection\jpa\service\CollectionService.class
com\collection\jpa\service\CollectionTeamImpl.class
com\collection\jpa\service\RemedialTeamService.class
com\collection\jpa\service\LKPTransactionImpl.class
com\collection\jpa\controller\CollectionWorkingAreaController.class
com\collection\jpa\service\IdCardService.class
com\collection\jpa\service\ProfCollMouImpl.class
com\collection\jpa\service\OfficeImpl.class
com\collection\jpa\service\RemedialMemberImpl.class
com\collection\jpa\config\CORSFilter.class
com\collection\jpa\service\LKPHistoryService.class
com\collection\jpa\entity\Zone.class
com\collection\jpa\service\CollectionImpl.class
com\collection\jpa\entity\DeskCallWorkingArea.class
com\collection\jpa\service\UserService.class
com\collection\jpa\entity\JobTitle.class
com\collection\jpa\dao\CollectionWorkingAreaRepository.class
com\collection\jpa\dao\LKPTransactionRepository.class
com\collection\jpa\dto\CollectionMemberCriteria.class
com\collection\jpa\dto\StaffCriteria.class
com\collection\jpa\util\Page.class
com\collection\jpa\dto\ParamDTO.class
com\collection\jpa\service\RemedialTeamImpl.class
com\collection\jpa\dao\GeneralParameterRepository.class
com\collection\jpa\service\RemedialMemberService.class
com\collection\jpa\dao\DeskcallWorkingAreaRepository.class
com\collection\jpa\dto\OfficeCriteria.class
com\collection\jpa\entity\RemedialTeam.class
com\collection\jpa\dao\CycleRepository.class
com\collection\jpa\entity\RemedialWorkingArea.class
com\collection\jpa\dao\PrintActivityRepository.class
com\collection\jpa\entity\BucketDetail.class
com\collection\jpa\controller\OfficeController.class
com\collection\jpa\service\EmployeeImpl.class
com\collection\jpa\service\EmployeeService.class
com\collection\jpa\dao\CollectionMemberRepository.class
com\collection\jpa\service\ProfCollMemberService.class
com\collection\jpa\entity\LKPPriority.class
com\collection\jpa\dao\CollectionDormantRepository.class
com\collection\jpa\dao\ProfCollectionMOURepository.class
com\collection\jpa\dao\LKPPriorityRepository.class
com\collection\jpa\dao\ProfCollectionMemberRepository.class
com\collection\jpa\service\ProfCollService.class
com\collection\jpa\dao\RemedialMemberRepository.class
com\collection\jpa\entity\ProfCollectionMember.class
com\collection\jpa\service\CollectionWorkingAreaImpl.class
com\collection\jpa\dto\CtDTO.class
com\collection\jpa\dto\DeskCallTeamMemberDTO.class
com\collection\jpa\service\CollectionBusinessUnitImpl.class
com\collection\jpa\service\OfficeService.class
com\collection\jpa\service\RemedialWorkingZoneService.class
com\collection\jpa\dto\OfficeDTO.class
com\collection\jpa\service\LkpPriorityImpl.class
com\collection\jpa\service\CollectionWorkingAreaService.class
com\collection\jpa\service\ProfCollImpl.class
com\collection\jpa\dao\ZipcodeRepository.class
com\collection\jpa\service\ZoneService.class
com\collection\jpa\controller\CollectionController.class
com\collection\jpa\entity\Role.class
com\collection\jpa\dao\UserRepository.class
com\collection\jpa\service\BusinessUnitImpl.class
com\collection\jpa\dao\ProfCollectionRepository.class
com\collection\jpa\dto\Collection.class
com\collection\jpa\dto\ZoneCriteria.class
com\collection\jpa\entity\GeneralParameter.class
com\collection\jpa\service\ChangeCollectorService.class
com\collection\jpa\service\ZoneImpl.class
com\collection\jpa\util\ServiceResult.class
com\collection\jpa\dto\EmployeeCriteria.class
com\collection\jpa\dao\RemedialWorkingZoneRepository.class
com\collection\jpa\dto\EmployeeDTO.class
com\collection\jpa\entity\DeskCallMember.class
com\collection\jpa\CustomUserDetails.class
com\collection\jpa\entity\IdCard.class
com\collection\jpa\entity\CollectionBusinessUnit.class
com\collection\jpa\service\CollectionDormantImpl.class
com\collection\jpa\dao\DeskcallTeamRepository.class
com\collection\jpa\entity\CollectionTeam.class
com\collection\jpa\dto\CmDTO.class
com\collection\jpa\dto\ZipDTO.class
com\collection\jpa\service\DeskcallWorkingAreaImpl.class
com\collection\jpa\service\RemedialWorkingAreaService.class
com\collection\jpa\dao\CollectionBusinessUnitRepository.class
com\collection\jpa\entity\BusinessUnit.class
com\collection\jpa\dao\ZoneRepository.class
com\collection\jpa\service\GeneralParameterService.class
com\collection\jpa\service\CollectionBusinessUnitService.class
com\collection\jpa\util\ServiceResult$MessageType.class
com\collection\jpa\dto\CollectionWorkingAreaCriteria.class
com\collection\jpa\service\BucketDetailService.class
com\collection\jpa\service\CollectionTeamService.class
com\collection\jpa\dao\LKPHistoryRepository.class
com\collection\jpa\util\InList.class
com\collection\jpa\entity\CollectionWorkingArea.class
com\collection\jpa\entity\LKPHistory.class
com\collection\jpa\controller\CollectionMemberController.class
com\collection\jpa\service\CollectionMemberImpl.class
com\collection\jpa\dao\EmployeeRepository.class
com\collection\jpa\dto\CollectionTeamCriteria.class
com\collection\jpa\dto\ContractCriteria.class
com\collection\jpa\dto\LkpPrintDTO.class
com\collection\jpa\entity\Zipcode.class
com\collection\jpa\dto\TeamCriteria.class
com\collection\jpa\controller\CollectionTeamController.class
com\collection\jpa\dao\RemedialWorkingAreaRepository.class
com\collection\jpa\config\ResourceServerConfig.class
com\collection\jpa\service\ProfCollMemberImpl.class
com\collection\jpa\service\LkpPriorityService.class
com\collection\jpa\dto\ZipcodeCriteria.class
com\collection\jpa\entity\User.class
com\collection\jpa\entity\LKPComment.class
com\collection\jpa\service\DeskcallMemberImpl.class
com\collection\jpa\dto\CycleCriteria.class
com\collection\jpa\service\CycleImpl.class
com\collection\jpa\controller\CycleController.class
com\collection\jpa\service\DeskcallWorkingAreaService.class
com\collection\jpa\controller\ZipcodeController.class
com\collection\jpa\service\IdCardImpl.class
com\collection\jpa\dto\CollectionMemberArea.class
com\collection\jpa\service\ZipcodeImpl.class
com\collection\jpa\service\BusinessUnitService.class
com\collection\jpa\service\RemedialWorkingZoneImpl.class
